#losing sandals
0-strip=47**aa30.79.1.28.30.7.91.1.4.95_ab_ac2.52.52.52_ba50_bb17.1_bc150.500.8.0.1_bd17_be180_ca61.0.40.61.14.8.34.0.9_cb0_da1.0.0.100_db_dd9.0.34.50.45.50_dh1.30.50.50.0_di6_qa_qb_dc0.1.1.1.1_eh4.A27241_ea26.A27241.A27241.56.0.0_ec10.28.A27241.A27241.56.45.60.1_ed28.50.1.1.A27241.56_ef_eg_r00_fa2.50.50.60.50.86.56_fb7_fh_fc0.9.55.0.9.55.50.61.61.50.50.50_fd1.0.19.A27241.56_fe58.61_ff0000000000_fg0.50_pa0.0.0.0.40.50.85.85.0.0_t00_pb_pc_pd_pe_ga0_gb1_gc0.0_ge0000000000_gh_gf_gg_gd10000000_ha63.63_hb26.1.0.100_hc0.65.39.0.65.39_hd1.1.49.49_ia_if_ib_id_ic3.6.55.6.0_jc_ie_ja_jb_jd3.6.6.50_je3.6.6.50_jf_jg_ka10.6.0.0.0_kb10.6.0.0_kc_kd_ke_kf_la_lb_oa_os_ob_oc_od_oe_of_lc_m00_n00_s00_og_oh_oo_op_oq_or_om_on_ok_ol_oi_oj_ad0.0.0.0.0.0.0.0.0.0
1-stripped=47**aa30.79.1.28.30.10.96.1.4.84_ab_ac2.52.52.52_ba50_bb17.1_bc237.500.8.0.1_bd17_be180_ca61.0.40.61.14.8.34.0.9_cb0_da1.0.0.100_db_dd9.0.34.50.45.50_dh1.30.50.50.0_di6_qa_qb_dc0.1.1.1.1_eh4.A27241_ea26.A27241.A27241.56.0.0_ec10.28.A27241.A27241.56.45.60.1_ed28.50.1.1.A27241.56_ef_eg_r00_fa2.50.50.60.50.86.56_fb7_fh_fc0.9.55.0.9.55.50.61.61.50.50.50_fd1.0.19.A27241.56_fe58.61_ff0000000000_fg0.50_pa0.0.0.0.40.50.85.85.0.0_t00_pb_pc_pd_pe_ga0_gb1_gc0.0_ge0000000000_gh_gf_gg_gd10000000_ha63.63_hb70.1.0.100_hc0.65.39.0.65.39_hd1.1.49.49_ia_if_ib_id_ic3.6.55.6.0_jc_ie_ja_jb_jd_je3.6.6.50_jf_jg_ka10.6.18.18.0_kb10.6.18.18_kc_kd_ke_kf_la_lb_oa_os_ob_oc_od_oe_of_lc_m00_n00_s00_og_oh_oo_op_oq_or_om_on_ok_ol_oi_oj_ad0.0.0.0.0.0.0.0.0.0

#losing skirt
1-strip=47**aa20.94.1.42.34.37.83.1.4.71_ab_ac2.52.52.52_ba50_bb17.1_bc325.500.8.0.1_bd17_be180_ca61.0.40.61.14.8.34.0.9_cb0_da1.0.0.100_db_dd9.0.34.50.45.50_dh1.30.50.50.0_di6_qa_qb_dc0.1.1.1.1_eh4.A27241_ea26.A27241.A27241.56.0.0_ec10.28.A27241.A27241.56.45.60.1_ed28.50.1.1.A27241.56_ef_eg_r00_fa2.50.50.60.50.91.56_fb7_fh_fc0.9.55.0.9.55.50.61.61.50.50.50_fd1.0.19.A27241.56_fe58.61_ff0000000000_fg0.50_pa0.0.0.0.40.50.85.85.0.0_t00_pb_pc_pd_pe_ga0_gb1_gc17.0_ge0000000000_gh_gf_gg_gd10000000_ha70.70_hb49.1.15.99_hc0.65.39.0.65.39_hd39.1.49.49_ia_if_ib_id_ic3.6.55.6.0_jc_ie_ja_jb_jd_je_jf_jg_ka10.6.43.0.0_kb10.6.43.0_kc_kd_ke_kf_la_lb_oa_os_ob_oc_od_oe_of_lc_m00_n00_s00_og_oh_oo_op_oq_or_om_on_ok_ol_oi_oj_ad0.0.0.0.0.0.0.0.0.0
2-stripped=40**aa15.92.1.42.35.15.92.1.4.35_ab_ac2.52.52.52_ba50_bb17.1_bc412.500.8.0.1_bd17_be180_ca61.0.40.61.14.8.34.0.9_cb0_da1.0.0.100_db_dd10.0.34.50.45_dh1.30.50.50.0_di6_qa_qb_dc0.1.1.1.1_eh4.A27241_ea26.A27241.A27241.56.0.0_ec10.28.A27241.A27241.56.45.60.1_ed28.50.1.1.A27241.56_ef_eg_r0_fa2.50.50.60.50.60.56_fb7_fh_fc0.9.55.0.9.55.50.61.61.50.50.50_fd1.0.19.A27241.56_fe58.61_ff0000000000_fg0.50_pa0.0.0.0.40.50.85.85.0.0_t0_pb_pc_pd_pe_ga0_gb1_gc17.0_ge0000000000_gh_gf_gg_gd10000000_ha70.70_hb49.1.50.99_hc0.14.39.0.14.39_hd4.1.49.49_ia_if_ib_id_ic_jc_ie_ja_jb_jd_je_jf_jg_ka10.6.0.0.0_kb10.6.0.0_kc_kd_ke_kf_la_lb_oa_os_ob_oc_od_oe_of_lc_m0_n0_s0_og_oh_oo_op_oq_or_om_on_ok_ol_oi_oj_ad0.0.0.0.0.0.0.0.0.0

#losing top
2-strip=40**aa11.75.1.42.44.11.75.1.4.44_ab_ac2.52.52.52_ba50_bb17.1_bc500.500.8.0.1_bd17_be180_ca61.0.40.61.14.8.34.0.9_cb0_da1.0.0.100_db_dd10.0.34.50.45_dh1.30.50.50.0_di6_qa_qb_dc0.1.1.1.1_eh4.A27241_ea26.A27241.A27241.56.0.0_ec10.28.A27241.A27241.56.45.60.1_ed28.50.1.1.A27241.56_ef_eg_r0_fa2.50.50.60.50.86.56_fb7_fh_fc0.9.55.0.9.55.50.61.61.50.50.50_fd1.0.19.A27241.56_fe58.61_ff0000000000_fg0.50_pa0.0.0.0.40.50.85.85.0.0_t0_pb_pc_pd_pe_ga0_gb1_gc45.0_ge0000000000_gh_gf_gg_gd10000000_ha88.88_hb49.1.50.99_hc0.65.39.0.65.39_hd37.1.49.49_ia_if_ib_id_ic_jc_ie_ja_jb_jd_je_jf_jg_ka10.6.59.59.0_kb10.6.59.59_kc_kd_ke_kf_la_lb_oa_os_ob_oc_od_oe_of_lc_m0_n0_s0_og_oh_oo_op_oq_or_om_on_ok_ol_oi_oj_ad0.0.0.0.0.0.0.0.0.0
3-stripped=40**aa11.66.1.42.39.11.66.1.4.54_ab_ac2.52.52.52_ba50_bb17.1_bc587.500.8.0.1_bd17_be180_ca61.0.40.61.14.8.34.0.9_cb0_da1.0.0.100_db_dd12.0.34.50.45_dh1.30.50.50.0_di6_qa_qb_dc0.1.1.1.1_eh4.A27241_ea26.A27241.A27241.56.0.0_ec10.28.A27241.A27241.56.45.60.1_ed28.50.1.1.A27241.56_ef_eg_r0_fa2.50.50.60.50.86.56_fb7_fh_fc0.9.55.0.9.55.50.61.61.50.50.50_fd1.0.19.A27241.56_fe58.61_ff0000000000_fg0.50_pa0.0.0.0.40.50.85.85.0.0_t0_pb_pc_pd_pe_ga0_gb1_gc56.0_ge0000000000_gh_gf_gg_gd10000000_ha71.71_hb49.1.50.99_hc0.65.39.0.65.39_hd10.1.49.49_ia_if_ib_id_ic_jc_ie_ja_jb_jd_je_jf_jg_ka_kb10.6.18.18_kc_kd_ke_kf_la_lb_oa_os_ob_oc_od_oe_of_lc_m0_n0_s0_og_oh_oo_op_oq_or_om_on_ok_ol_oi_oj_ad0.0.0.0.0.0.0.0.0.0

#losing bottom
3-strip=40**aa28.81.1.47.76.28.81.1.4.76_ab_ac2.52.52.52_ba50_bb17.1_bc675.500.8.0.1_bd17_be180_ca61.0.40.61.14.8.34.0.9_cb0_da1.0.0.100_db_dd10.0.34.50.45_dh1.30.50.50.0_di6_qa_qb_dc0.1.1.1.1_eh4.A27241_ea26.A27241.A27241.56.0.0_ec10.28.A27241.A27241.56.45.60.1_ed28.50.1.1.A27241.56_ef_eg_r0_fa2.50.50.60.50.86.56_fb7_fh_fc0.9.55.0.9.55.50.61.61.50.50.50_fd1.0.19.A27241.56_fe58.61_ff0000000000_fg0.50_pa0.0.0.0.40.50.85.85.0.0_t0_pb_pc_pd_pe_ga0_gb1_gc45.0_ge0000000000_gh_gf_gg_gd10000000_ha72.72_hb49.1.36.99_hc0.65.39.0.65.39_hd47.1.49.49_ia_if_ib_id_ic_jc_ie_ja_jb_jd_je_jf_jg_ka_kb10.6.2.2_kc_kd_ke_kf_la_lb_oa_os_ob_oc_od_oe_of_lc_m0_n0_s0_og_oh_oo_op_oq_or_om_on_ok_ol_oi_oj_ad0.0.0.0.0.0.0.0.0.0
4-stripped=40**aa19.63.1.28.44.7.92.1.4.58_ab_ac2.52.52.52_ba50_bb17.1_bc762.500.8.0.1_bd17_be180_ca61.0.40.61.14.8.34.0.9_cb0_da1.0.0.100_db_dd13.0.34.50.45_dh1.30.50.50.0_di6_qa_qb_dc0.1.1.1.1_eh4.A27241_ea26.A27241.A27241.56.0.0_ec10.28.A27241.A27241.56.45.60.1_ed28.50.1.1.A27241.56_ef_eg_r0_fa2.50.50.60.50.95.56_fb7_fh_fc0.9.55.0.9.55.50.61.61.50.50.50_fd1.0.19.A27241.56_fe58.61_ff0000000000_fg0.50_pa0.0.0.0.40.50.85.85.0.0_t0_pb_pc_pd_pe_ga0_gb1_gc60.0_ge0000000000_gh_gf_gg_gd10000000_ha65.65_hb49.1.36.99_hc0.65.39.0.65.39_hd9.1.49.49_ia_if_ib_id_ic_jc_ie_ja_jb_jd_je_jf_jg_ka_kb_kc_kd_ke_kf_la_lb_oa_os_ob_oc_od_oe_of_lc_m0_n0_s0_og_oh_oo_op_oq_or_om_on_ok_ol_oi_oj_ad0.0.0.0.0.0.0.0.0.0

#topless/nude pictures (she's covering herself)
3-loss=40**aa17.63.1.28.51.11.93.1.4.70_ab_ac2.52.52.52_ba50_bb17.1_bc150.500.8.0.1_bd17_be180_ca61.0.40.61.14.8.34.0.9_cb0_da1.0.0.100_db_dd0.0.34.50.45_dh1.30.50.50.0_di6_qa_qb_dc0.1.1.1.1_eh4.A27241_ea26.A27241.A27241.56.0.0_ec10.28.A27241.A27241.56.45.60.1_ed28.50.1.1.A27241.56_ef_eg_r0_fa2.50.50.60.50.86.56_fb7_fh_fc0.9.55.0.9.55.50.61.61.50.50.50_fd1.0.19.A27241.56_fe58.61_ff0000000000_fg0.50_pa0.0.0.0.40.50.85.85.0.0_t0_pb_pc_pd_pe_ga0_gb1_gc27.0_ge0000000000_gh_gf_gg_gd10000000_ha61.61_hb49.1.3.99_hc0.65.39.0.65.39_hd21.1.49.49_ia_if_ib_id_ic_jc_ie_ja_jb_jd_je_jf_jg_ka_kb10.6.42.42_kc_kd_ke_kf_la_lb_oa_os_ob_oc_od_oe_of_lc_m0_n0_s0_og_oh_oo_op_oq_or_om_on_ok_ol_oi_oj_ad0.0.0.0.0.0.0.0.0.0
3-stunned=40**aa16.63.1.28.54.91.35.1.6.43_ab_ac2.52.52.52_ba50_bb17.1_bc237.500.8.0.1_bd17_be180_ca61.0.40.61.14.8.34.0.9_cb0_da1.0.0.100_db_dd1.0.34.50.45_dh1.30.50.50.0_di6_qa_qb_dc0.1.1.1.1_eh4.A27241_ea26.A27241.A27241.56.0.0_ec10.28.A27241.A27241.56.45.60.1_ed28.50.1.1.A27241.56_ef_eg_r0_fa2.50.50.60.50.59.56_fb7_fh_fc0.9.55.0.9.55.50.61.61.50.50.50_fd1.0.19.A27241.56_fe58.61_ff0000000000_fg0.50_pa0.0.0.0.40.50.85.85.0.0_t0_pb_pc_pd_pe_ga0_gb1_gc50.0_ge0000000000_gh_gf_gg_gd10000000_ha23.23_hb49.1.44.99_hc0.0.39.0.0.39_hd40.1.49.49_ia_if_ib_id_ic_jc_ie_ja_jb_jd_je_jf_jg_ka_kb10.6.59.0_kc_kd_ke_kf_la_lb_oa_os_ob_oc_od_oe_of_lc_m0_n0_s0_og_oh_oo_op_oq_or_om_on_ok_ol_oi_oj_ad0.0.0.0.0.0.0.0.0.0
3-excited=40**aa7.44.0.43.54.7.44.0.6.43_ab_ac2.52.52.52_ba50_bb17.1_bc325.500.8.0.1_bd17_be180_ca61.0.40.61.14.8.34.0.9_cb0_da1.0.0.100_db_dd10.0.34.50.45_dh1.30.50.50.0_di6_qa_qb_dc0.1.1.1.1_eh4.A27241_ea26.A27241.A27241.56.0.0_ec10.28.A27241.A27241.56.45.60.1_ed28.50.1.1.A27241.56_ef_eg_r0_fa2.50.50.60.50.99.56_fb7_fh_fc0.9.55.0.9.55.50.61.61.50.50.50_fd1.0.19.A27241.56_fe58.61_ff0000000000_fg0.50_pa0.0.0.0.40.50.85.85.0.0_t0_pb_pc_pd_pe_ga0_gb1_gc60.0_ge0000000000_gh_gf_gg_gd10000000_ha96.96_hb49.1.44.99_hc0.41.39.0.41.39_hd34.1.49.49_ia_if_ib_id_ic_jc_ie_ja_jb_jd_je_jf_jg_ka_kb10.6.1.1_kc_kd_ke_kf_la_lb_oa_os_ob_oc_od_oe_of_lc_m0_n0_s0_og_oh_oo_op_oq_or_om_on_ok_ol_oi_oj_ad0.0.0.0.0.0.0.0.0.0
3-angry=40**aa10.66.1.16.42.10.66.1.4.52_ab_ac2.52.52.52_ba50_bb17.1_bc412.500.8.0.1_bd17_be180_ca61.0.40.61.14.8.34.0.9_cb0_da1.0.0.100_db_dd0.0.34.50.45_dh1.30.50.50.0_di6_qa_qb_dc0.1.1.1.1_eh4.A27241_ea26.A27241.A27241.56.0.0_ec10.28.A27241.A27241.56.45.60.1_ed28.50.1.1.A27241.56_ef_eg_r0_fa6.50.50.60.50.31.56_fb6_fh_fc0.9.55.0.9.55.50.61.61.50.50.50_fd1.0.19.A27241.56_fe58.61_ff0000000000_fg0.50_pa0.0.0.0.40.50.85.85.0.0_t0_pb_pc_pd_pe_ga0_gb1_gc27.0_ge0000000000_gh_gf_gg_gd10000000_ha77.77_hb49.1.44.99_hc0.0.39.0.0.39_hd38.1.49.49_ia_if_ib_id_ic_jc_ie_ja_jb_jd_je_jf_jg_ka_kb10.6.0.0_kc_kd_ke_kf_la_lb_oa_os_ob_oc_od_oe_of_lc_m0_n0_s0_og_oh_oo_op_oq_or_om_on_ok_ol_oi_oj_ad0.0.0.0.0.0.0.0.0.0
3-shocked=40**aa65.38.1.27.41.75.36.1.4.60_ab_ac2.52.52.52_ba50_bb17.1_bc500.500.8.0.1_bd17_be180_ca61.0.40.61.14.8.34.0.9_cb0_da1.0.0.100_db_dd1.0.34.50.45_dh1.30.50.50.0_di6_qa_qb_dc0.1.1.1.1_eh4.A27241_ea26.A27241.A27241.56.0.0_ec10.28.A27241.A27241.56.45.60.1_ed28.50.1.1.A27241.56_ef_eg_r0_fa2.50.50.60.50.79.56_fb7_fh_fc0.9.55.0.9.55.50.61.61.50.50.50_fd1.0.19.A27241.56_fe58.61_ff0000000000_fg0.50_pa0.0.0.0.40.50.85.85.0.0_t0_pb_pc_pd_pe_ga0_gb1_gc50.0_ge0000000000_gh_gf_gg_gd10000000_ha88.88_hb49.1.44.99_hc0.59.39.0.59.39_hd41.1.49.49_ia_if_ib_id_ic_jc_ie_ja_jb_jd_je_jf_jg_ka_kb10.6.59.59_kc_kd_ke_kf_la_lb_oa_os_ob_oc_od_oe_of_lc_m0_n0_s0_og_oh_oo_op_oq_or_om_on_ok_ol_oi_oj_ad0.0.0.0.0.0.0.0.0.0
3-sad=40**aa11.66.0.16.39.13.97.0.4.78_ab_ac2.52.52.52_ba50_bb17.1_bc587.500.8.0.1_bd17_be180_ca61.0.40.61.14.8.34.0.9_cb0_da1.0.0.100_db_dd0.0.34.50.45_dh1.30.50.50.0_di5_qa_qb_dc0.1.1.1.1_eh4.A27241_ea26.A27241.A27241.56.0.0_ec10.28.A27241.A27241.56.45.60.1_ed28.50.1.1.A27241.56_ef_eg_r0_fa3.50.50.60.50.74.56_fb6_fh_fc0.9.55.0.9.55.50.61.61.50.50.50_fd1.0.19.A27241.56_fe58.61_ff0000000000_fg0.50_pa0.0.0.0.40.50.85.85.0.0_t0_pb_pc_pd_pe_ga0_gb1_gc27.0_ge0000000000_gh_gf_gg_gd10000000_ha59.59_hb49.1.20.99_hc0.61.39.0.61.39_hd8.1.49.49_ia_if_ib_id_ic_jc_ie_ja_jb_jd_je_jf_jg_ka_kb10.6.18.18_kc_kd_ke_kf_la_lb_oa_os_ob_oc_od_oe_of_lc_m0_n0_s0_og_oh_oo_op_oq_or_om_on_ok_ol_oi_oj_ad0.0.0.0.0.0.0.0.0.0
3-interested=40**aa11.63.0.16.58.11.63.1.0.84_ab_ac2.52.52.52_ba50_bb17.1_bc675.500.8.0.1_bd17_be180_ca61.0.40.61.14.8.34.0.9_cb0_da1.0.0.100_db_dd1.0.34.50.45_dh1.30.50.50.0_di6_qa_qb_dc0.1.1.1.1_eh4.A27241_ea26.A27241.A27241.56.0.0_ec10.28.A27241.A27241.56.45.60.1_ed28.50.1.1.A27241.56_ef_eg_r0_fa5.50.50.60.50.0.56_fb8_fh_fc0.9.55.0.9.55.50.61.61.50.50.50_fd1.0.19.A27241.56_fe58.61_ff0000000000_fg0.50_pa0.0.0.0.40.50.85.85.0.0_t0_pb_pc_pd_pe_ga0_gb1_gc50.0_ge0000000000_gh_gf_gg_gd10000000_ha84.84_hb49.1.44.99_hc0.39.39.0.39.39_hd1.1.49.49_ia_if_ib_id_ic_jc_ie_ja_jb_jd_je_jf_jg_ka_kb10.6.2.2_kc_kd_ke_kf_la_lb_oa_os_ob_oc_od_oe_of_lc_m0_n0_s0_og_oh_oo_op_oq_or_om_on_ok_ol_oi_oj_ad0.0.0.0.0.0.0.0.0.0
3-calm=40**aa14.64.1.28.54.11.98.0.4.70_ab_ac2.52.52.52_ba50_bb17.1_bc762.500.8.0.1_bd17_be180_ca61.0.40.61.14.8.34.0.9_cb0_da1.0.0.100_db_dd0.0.34.50.45_dh1.30.50.50.0_di6_qa_qb_dc0.1.1.1.1_eh4.A27241_ea26.A27241.A27241.56.0.0_ec10.28.A27241.A27241.56.45.60.1_ed28.50.1.1.A27241.56_ef_eg_r0_fa2.50.50.60.50.65.56_fb7_fh_fc0.9.55.0.9.55.50.61.61.50.50.50_fd1.0.19.A27241.56_fe58.61_ff0000000000_fg0.50_pa0.0.0.0.40.50.85.85.0.0_t0_pb_pc_pd_pe_ga0_gb1_gc27.0_ge0000000000_gh_gf_gg_gd10000000_ha70.70_hb49.1.44.99_hc0.65.39.0.65.39_hd0.1.49.49_ia_if_ib_id_ic_jc_ie_ja_jb_jd_je_jf_jg_ka_kb10.6.33.33_kc_kd_ke_kf_la_lb_oa_os_ob_oc_od_oe_of_lc_m0_n0_s0_og_oh_oo_op_oq_or_om_on_ok_ol_oi_oj_ad0.0.0.0.0.0.0.0.0.0
3-horny=40**aa10.58.0.42.75.10.58.0.4.75_ab_ac2.52.52.52_ba50_bb17.1_bc850.500.8.0.1_bd17_be180_ca61.0.40.61.14.8.34.0.9_cb0_da1.0.0.100_db_dd10.0.34.50.45_dh1.30.50.50.0_di6_qa_qb_dc0.1.1.1.1_eh4.A27241_ea26.A27241.A27241.56.0.0_ec10.28.A27241.A27241.56.45.60.1_ed28.50.1.1.A27241.56_ef_eg_r0_fa2.50.50.60.50.65.56_fb7_fh_fc0.9.55.0.9.55.50.61.61.50.50.50_fd1.0.19.A27241.56_fe58.61_ff0000000000_fg0.50_pa0.0.0.0.40.50.85.85.0.0_t0_pb_pc_pd_pe_ga0_gb1_gc60.0_ge0000000000_gh_gf_gg_gd10000000_ha87.87_hb49.1.44.99_hc0.59.39.0.59.39_hd27.1.49.49_ia_if_ib_id_ic_jc_ie_ja_jb_jd_je_jf_jg_ka_kb10.6.0.0_kc_kd_ke_kf_la_lb_oa_os_ob_oc_od_oe_of_lc_m0_n0_s0_og_oh_oo_op_oq_or_om_on_ok_ol_oi_oj_ad0.0.0.0.0.0.0.0.0.0
3-happy=40**aa11.66.0.42.35.12.42.0.4.70_ab_ac2.52.52.52_ba50_bb17.1_bc150.500.8.0.1_bd17_be180_ca61.0.40.61.14.8.34.0.9_cb0_da1.0.0.100_db_dd0.0.34.50.45_dh1.30.50.50.0_di6_qa_qb_dc0.1.1.1.1_eh4.A27241_ea26.A27241.A27241.56.0.0_ec10.28.A27241.A27241.56.45.60.1_ed28.50.1.1.A27241.56_ef_eg_r0_fa2.50.50.60.50.65.56_fb7_fh_fc0.9.55.0.9.55.50.61.61.50.50.50_fd1.0.19.A27241.56_fe58.61_ff0000000000_fg0.50_pa0.0.0.0.40.50.85.85.0.0_t0_pb_pc_pd_pe_ga0_gb1_gc27.0_ge0000000000_gh_gf_gg_gd10000000_ha75.75_hb49.1.44.99_hc0.59.39.0.59.39_hd1.1.49.49_ia_if_ib_id_ic_jc_ie_ja_jb_jd_je_jf_jg_ka_kb10.6.42.42_kc_kd_ke_kf_la_lb_oa_os_ob_oc_od_oe_of_lc_m0_n0_s0_og_oh_oo_op_oq_or_om_on_ok_ol_oi_oj_ad0.0.0.0.0.0.0.0.0.0
3-smug=40**aa9.66.1.42.49.9.66.1.4.49_ab_ac2.52.52.52_ba50_bb18.1_bc237.500.8.0.1_bd18_be180_ca61.0.40.61.14.8.34.0.9_cb0_da1.0.0.100_db_dd0.0.34.50.45_dh1.30.50.50.0_di6_qa_qb_dc0.1.1.1.1_eh4.A27241_ea26.A27241.A27241.56.0.0_ec10.28.A27241.A27241.56.45.60.1_ed28.50.1.1.A27241.56_ef_eg_r0_fa2.50.50.60.50.38.56_fb7_fh_fc0.9.55.0.9.55.50.61.61.50.50.50_fd1.0.19.A27241.56_fe58.61_ff0000000000_fg0.50_pa0.0.0.0.40.50.85.85.0.0_t0_pb_pc_pd_pe_ga0_gb1_gc27.0_ge0000000000_gh_gf_gg_gd10000000_ha63.63_hb49.1.44.99_hc0.35.39.0.35.39_hd2.1.49.49_ia_if_ib_id_ic_jc_ie_ja_jb_jd_je_jf_jg_ka_kb10.6.59.0_kc_kd_ke_kf_la_lb_oa_os_ob_oc_od_oe_of_lc_m0_n0_s0_og_oh_oo_op_oq_or_om_on_ok_ol_oi_oj_ad0.0.0.0.0.0.0.0.0.0

4-loss=40**aa18.63.1.28.45.6.93.1.4.73_ab_ac2.52.52.52_ba50_bb17.1_bc150.500.8.0.1_bd17_be180_ca61.0.40.61.14.8.34.0.9_cb0_da1.0.0.100_db_dd0.0.34.50.45_dh1.30.50.50.0_di6_qa_qb_dc5.1.1.1.1_eh4.A27241_ea26.A27241.A27241.56.0.0_ec10.28.A27241.A27241.56.45.60.1_ed28.50.1.1.A27241.56_ef_eg_r0_fa2.50.50.60.50.86.56_fb7_fh_fc0.9.55.0.9.55.50.61.61.50.50.50_fd1.0.19.A27241.56_fe58.61_ff0000000000_fg0.50_pa0.0.0.0.40.50.85.85.0.0_t0_pb_pc_pd_pe_ga0_gb1_gc27.0_ge0000000000_gh_gf_gg_gd10000000_ha61.61_hb49.1.3.99_hc0.65.39.0.65.39_hd21.1.49.49_ia_if_ib_id_ic_jc_ie_ja_jb_jd_je_jf_jg_ka_kb_kc_kd_ke_kf_la_lb_oa_os_ob_oc_od_oe_of_lc_m0_n0_s0_og_oh_oo_op_oq_or_om_on_ok_ol_oi_oj_ad0.0.0.0.0.0.0.0.0.0
4-stunned=40**aa17.63.1.28.54.11.95.1.0.27_ab_ac2.52.52.52_ba50_bb17.1_bc237.500.8.0.1_bd17_be180_ca61.0.40.61.14.8.34.0.9_cb0_da1.0.0.100_db_dd1.0.34.50.45_dh1.30.50.50.0_di6_qa_qb_dc5.1.1.1.1_eh4.A27241_ea26.A27241.A27241.56.0.0_ec10.28.A27241.A27241.56.45.60.1_ed28.50.1.1.A27241.56_ef_eg_r0_fa2.50.50.60.50.59.56_fb7_fh_fc0.9.55.0.9.55.50.61.61.50.50.50_fd1.0.19.A27241.56_fe58.61_ff0000000000_fg0.50_pa0.0.0.0.40.50.85.85.0.0_t0_pb_pc_pd_pe_ga0_gb1_gc50.0_ge0000000000_gh_gf_gg_gd10000000_ha60.60_hb49.1.44.45_hc0.0.39.0.0.39_hd40.1.49.49_ia_if_ib_id_ic_jc_ie_ja_jb_jd_je_jf_jg_ka_kb_kc_kd_ke_kf_la_lb_oa_os_ob_oc_od_oe_of_lc_m0_n0_s0_og_oh_oo_op_oq_or_om_on_ok_ol_oi_oj_ad0.0.0.0.0.0.0.0.0.0
4-excited=40**aa12.42.0.42.54.12.42.0.4.70_ab_ac2.52.52.52_ba50_bb17.1_bc325.500.8.0.1_bd17_be180_ca61.0.40.61.14.8.34.0.9_cb0_da1.0.0.100_db_dd1.0.34.50.45_dh1.30.50.50.0_di6_qa_qb_dc140.1.1.1.1_eh4.A27241_ea26.A27241.A27241.56.0.0_ec10.28.A27241.A27241.56.45.60.1_ed28.50.1.1.A27241.56_ef_eg_r0_fa2.50.50.60.50.65.56_fb7_fh_fc0.9.55.0.9.55.50.61.61.50.50.50_fd1.0.19.A27241.56_fe58.61_ff0000000000_fg0.50_pa0.0.0.0.40.50.85.85.0.0_t0_pb_pc_pd_pe_ga0_gb1_gc50.0_ge0000000000_gh_gf_gg_gd10000000_ha75.75_hb49.1.44.99_hc0.59.39.0.59.39_hd33.1.49.49_ia_if_ib_id_ic_jc_ie_ja_jb_jd_je_jf_jg_ka_kb_kc_kd_ke_kf_la_lb_oa_os_ob_oc_od_oe_of_lc_m0_n0_s0_og_oh_oo_op_oq_or_om_on_ok_ol_oi_oj_ad0.0.0.0.0.0.0.0.0.0
4-angry=40**aa13.66.1.16.31.6.92.1.4.52_ab_ac2.52.52.52_ba50_bb17.1_bc412.500.8.0.1_bd17_be180_ca61.0.40.61.14.8.34.0.9_cb0_da1.0.0.100_db_dd0.0.34.50.45_dh1.30.50.50.0_di6_qa_qb_dc5.1.1.1.1_eh4.A27241_ea26.A27241.A27241.56.0.0_ec10.28.A27241.A27241.56.45.60.1_ed28.50.1.1.A27241.56_ef_eg_r0_fa6.50.50.60.50.31.56_fb6_fh_fc0.9.55.0.9.55.50.61.61.50.50.50_fd1.0.19.A27241.56_fe58.61_ff0000000000_fg0.50_pa0.0.0.0.40.50.85.85.0.0_t0_pb_pc_pd_pe_ga0_gb1_gc27.0_ge0000000000_gh_gf_gg_gd10000000_ha77.77_hb49.1.44.99_hc0.0.39.0.0.39_hd38.1.49.49_ia_if_ib_id_ic_jc_ie_ja_jb_jd_je_jf_jg_ka_kb_kc_kd_ke_kf_la_lb_oa_os_ob_oc_od_oe_of_lc_m0_n0_s0_og_oh_oo_op_oq_or_om_on_ok_ol_oi_oj_ad0.0.0.0.0.0.0.0.0.0
4-shocked=40**aa65.38.1.27.41.75.36.1.4.60_ab_ac2.52.52.52_ba50_bb17.1_bc500.500.8.0.1_bd17_be180_ca61.0.40.61.14.8.34.0.9_cb0_da1.0.0.100_db_dd1.0.34.50.45_dh1.30.50.50.0_di6_qa_qb_dc5.1.1.1.1_eh4.A27241_ea26.A27241.A27241.56.0.0_ec10.28.A27241.A27241.56.45.60.1_ed28.50.1.1.A27241.56_ef_eg_r0_fa2.50.50.60.50.79.56_fb7_fh_fc0.9.55.0.9.55.50.61.61.50.50.50_fd1.0.19.A27241.56_fe58.61_ff0000000000_fg0.50_pa0.0.0.0.40.50.85.85.0.0_t0_pb_pc_pd_pe_ga0_gb1_gc50.0_ge0000000000_gh_gf_gg_gd10000000_ha88.88_hb49.1.44.99_hc0.59.39.0.59.39_hd41.1.49.49_ia_if_ib_id_ic_jc_ie_ja_jb_jd_je_jf_jg_ka_kb_kc_kd_ke_kf_la_lb_oa_os_ob_oc_od_oe_of_lc_m0_n0_s0_og_oh_oo_op_oq_or_om_on_ok_ol_oi_oj_ad0.0.0.0.0.0.0.0.0.0
4-sad=40**aa11.67.1.42.38.13.97.0.4.70_ab_ac2.52.52.52_ba50_bb17.1_bc587.500.8.0.1_bd17_be180_ca61.0.40.61.14.8.34.0.9_cb0_da1.0.0.100_db_dd0.0.34.50.45_dh1.30.50.50.0_di6_qa_qb_dc5.1.1.1.1_eh4.A27241_ea26.A27241.A27241.56.0.0_ec10.28.A27241.A27241.56.45.60.1_ed28.50.1.1.A27241.56_ef_eg_r0_fa3.50.50.60.50.74.56_fb6_fh_fc0.9.55.0.9.55.50.61.61.50.50.50_fd1.0.19.A27241.56_fe58.61_ff0000000000_fg0.50_pa0.0.0.0.40.50.85.85.0.0_t0_pb_pc_pd_pe_ga0_gb1_gc27.0_ge0000000000_gh_gf_gg_gd10000000_ha59.59_hb49.1.20.99_hc0.61.39.0.61.39_hd8.1.49.49_ia_if_ib_id_ic_jc_ie_ja_jb_jd_je_jf_jg_ka_kb_kc_kd_ke_kf_la_lb_oa_os_ob_oc_od_oe_of_lc_m0_n0_s0_og_oh_oo_op_oq_or_om_on_ok_ol_oi_oj_ad0.0.0.0.0.0.0.0.0.0
4-interested=40**aa16.64.0.28.48.7.91.1.0.89_ab_ac2.52.52.52_ba50_bb17.1_bc675.500.8.0.1_bd17_be180_ca61.0.40.61.14.8.34.0.9_cb0_da1.0.0.100_db_dd1.0.34.50.45_dh1.30.50.50.0_di6_qa_qb_dc5.1.1.1.1_eh4.A27241_ea26.A27241.A27241.56.0.0_ec10.28.A27241.A27241.56.45.60.1_ed28.50.1.1.A27241.56_ef_eg_r0_fa5.50.50.60.50.0.56_fb8_fh_fc0.9.55.0.9.55.50.61.61.50.50.50_fd1.0.19.A27241.56_fe58.61_ff0000000000_fg0.50_pa0.0.0.0.40.50.85.85.0.0_t0_pb_pc_pd_pe_ga0_gb1_gc50.0_ge0000000000_gh_gf_gg_gd10000000_ha84.84_hb49.1.44.99_hc0.39.39.0.39.39_hd1.1.49.49_ia_if_ib_id_ic_jc_ie_ja_jb_jd_je_jf_jg_ka_kb_kc_kd_ke_kf_la_lb_oa_os_ob_oc_od_oe_of_lc_m0_n0_s0_og_oh_oo_op_oq_or_om_on_ok_ol_oi_oj_ad0.0.0.0.0.0.0.0.0.0
4-calm=40**aa16.64.1.28.50.7.91.1.4.70_ab_ac2.52.52.52_ba50_bb17.1_bc762.500.8.0.1_bd17_be180_ca61.0.40.61.14.8.34.0.9_cb0_da1.0.0.100_db_dd0.0.34.50.45_dh1.30.50.50.0_di6_qa_qb_dc5.1.1.1.1_eh4.A27241_ea26.A27241.A27241.56.0.0_ec10.28.A27241.A27241.56.45.60.1_ed28.50.1.1.A27241.56_ef_eg_r0_fa2.50.50.60.50.65.56_fb7_fh_fc0.9.55.0.9.55.50.61.61.50.50.50_fd1.0.19.A27241.56_fe58.61_ff0000000000_fg0.50_pa0.0.0.0.40.50.85.85.0.0_t0_pb_pc_pd_pe_ga0_gb1_gc27.0_ge0000000000_gh_gf_gg_gd10000000_ha70.70_hb49.1.44.99_hc0.65.39.0.65.39_hd0.1.49.49_ia_if_ib_id_ic_jc_ie_ja_jb_jd_je_jf_jg_ka_kb_kc_kd_ke_kf_la_lb_oa_os_ob_oc_od_oe_of_lc_m0_n0_s0_og_oh_oo_op_oq_or_om_on_ok_ol_oi_oj_ad0.0.0.0.0.0.0.0.0.0
4-horny=40**aa10.58.0.42.75.10.58.0.4.75_ab_ac2.52.52.52_ba50_bb17.1_bc850.500.8.0.1_bd17_be180_ca61.0.40.61.14.8.34.0.9_cb0_da1.0.0.100_db_dd10.0.34.50.45_dh1.30.50.50.0_di6_qa_qb_dc5.1.1.1.1_eh4.A27241_ea26.A27241.A27241.56.0.0_ec10.28.A27241.A27241.56.45.60.1_ed28.50.1.1.A27241.56_ef_eg_r0_fa2.50.50.60.50.65.56_fb7_fh_fc0.9.55.0.9.55.50.61.61.50.50.50_fd1.0.19.A27241.56_fe58.61_ff0000000000_fg0.50_pa0.0.0.0.40.50.85.85.0.0_t0_pb_pc_pd_pe_ga0_gb1_gc60.0_ge0000000000_gh_gf_gg_gd10000000_ha87.87_hb49.1.44.99_hc0.59.39.0.59.39_hd27.1.49.49_ia_if_ib_id_ic_jc_ie_ja_jb_jd_je_jf_jg_ka_kb_kc_kd_ke_kf_la_lb_oa_os_ob_oc_od_oe_of_lc_m0_n0_s0_og_oh_oo_op_oq_or_om_on_ok_ol_oi_oj_ad0.0.0.0.0.0.0.0.0.0
4-happy=40**aa11.66.0.42.30.9.88.1.4.58_ab_ac2.52.52.52_ba50_bb17.1_bc150.500.8.0.1_bd17_be180_ca61.0.40.61.14.8.34.0.9_cb0_da1.0.0.100_db_dd0.0.34.50.45_dh1.30.50.50.0_di6_qa_qb_dc5.1.1.1.1_eh4.A27241_ea26.A27241.A27241.56.0.0_ec10.28.A27241.A27241.56.45.60.1_ed28.50.1.1.A27241.56_ef_eg_r0_fa2.50.50.60.50.65.56_fb7_fh_fc0.9.55.0.9.55.50.61.61.50.50.50_fd1.0.19.A27241.56_fe58.61_ff0000000000_fg0.50_pa0.0.0.0.40.50.85.85.0.0_t0_pb_pc_pd_pe_ga0_gb1_gc27.0_ge0000000000_gh_gf_gg_gd10000000_ha75.75_hb49.1.44.99_hc0.59.39.0.59.39_hd1.1.49.49_ia_if_ib_id_ic_jc_ie_ja_jb_jd_je_jf_jg_ka_kb_kc_kd_ke_kf_la_lb_oa_os_ob_oc_od_oe_of_lc_m0_n0_s0_og_oh_oo_op_oq_or_om_on_ok_ol_oi_oj_ad0.0.0.0.0.0.0.0.0.0
4-smug=40**aa13.66.1.49.32.6.91.1.4.57_ab_ac2.52.52.52_ba50_bb18.1_bc237.500.8.0.1_bd18_be180_ca61.0.40.61.14.8.34.0.9_cb0_da1.0.0.100_db_dd0.0.34.50.45_dh1.30.50.50.0_di6_qa_qb_dc5.1.1.1.1_eh4.A27241_ea26.A27241.A27241.56.0.0_ec10.28.A27241.A27241.56.45.60.1_ed28.50.1.1.A27241.56_ef_eg_r0_fa2.50.50.60.50.38.56_fb7_fh_fc0.9.55.0.9.55.50.61.61.50.50.50_fd1.0.19.A27241.56_fe58.61_ff0000000000_fg0.50_pa0.0.0.0.40.50.85.85.0.0_t0_pb_pc_pd_pe_ga0_gb1_gc27.0_ge0000000000_gh_gf_gg_gd10000000_ha63.63_hb49.1.44.99_hc0.35.39.0.35.39_hd2.1.49.49_ia_if_ib_id_ic_jc_ie_ja_jb_jd_je_jf_jg_ka_kb_kc_kd_ke_kf_la_lb_oa_os_ob_oc_od_oe_of_lc_m0_n0_s0_og_oh_oo_op_oq_or_om_on_ok_ol_oi_oj_ad0.0.0.0.0.0.0.0.0.0

#masturbation special case
6-finished=40**aa6.75.1.42.14.6.75.1.4.23_ab_ac2.52.52.52_ba50_bb17.1_bc237.500.8.0.1_bd17_be180_ca61.0.40.61.14.8.34.0.9_cb0_da1.0.0.100_db_dd14.0.34.50.45_dh1.30.50.50.0_di6_qa_qb_dc140.1.1.1.1_eh4.A27241_ea26.A27241.A27241.56.0.0_ec10.28.A27241.A27241.56.45.60.1_ed28.50.1.1.A27241.56_ef_eg_r0_fa2.50.50.60.50.89.56_fb7_fh_fc0.9.55.0.9.55.50.61.61.50.50.50_fd1.0.19.A27241.56_fe58.61_ff0000000000_fg0.50_pa0.0.0.0.40.50.85.85.0.0_t0_pb_pc_pd_pe_ga0_gb1_gc80.0_ge0000000000_gh_gf_gg_gd10000000_ha49.49_hb49.1.17.99_hc0.59.39.0.59.39_hd27.1.49.49_ia_if_ib_id_ic_jc_ie_ja_jb_jd_je_jf_jg_ka_kb_kc_kd_ke_kf_la_lb_oa_os_ob_oc_od_oe_of_lc_m0_n0_s0_og_oh_oo_op_oq_or_om_on_ok_ol_oi_oj_ad0.0.0.0.0.0.0.0.0.0
