4-starting=47***aa11.61.1.47.34.11.61.1.47.35_ab_ac_ba50_bb62.1_bc185.200.0.0.1_bd62_be180_ca56.0.36.75.15.34.34.0.10_cb0_da1.0.0.100_db_dd0.3.0.9.17.50_dh1.30.50.50.0_di7_qa_qb_dc2735.3.1.1.1_eh_ea27.55.55.55.1.0_ec7.11.55.55.55.47.64.0_ed0.37.1.1.55.56_ef_eg_r00_fa4.76.87.73.32.65.56_fb7_fh1_fc0.FFDA00.55.0.FFDA00.55.37.61.61.37.48.50_fd1.0.36.55.56_fe50.73_ff0000000000_fg0.52_pa0.0.0.0.40.50.85.85.0.0_t00_pb0.54.54.0_pc_pd_pe_ga0_gb1_gc68.0_ge0000000000_gh_gf_gg_gd11000000_ha72.72_hb50.1.50.99_hc1.43.3.1.43.3_hd38.1.60.38_ia_if_ib_id_ic_jc_ie_ja_jb_jd_je_jf_jg_ka_kb_kc_kd_ke_kf_la_lb_oa_os_ob_oc_od_oe_of_lc_m00_n00_s00_og_oh_oo_op_oq_or_om_on_ok_ol_oi_oj_ad1.1.1.1.1.1.1.1.1.1*0*0*0*0*0*0*0*0#/]a00_b00_c00_d00_w00_x00_e00_y00_z00_ua1.55.0.0.100_uf0.3.0.0_ue_ub_u0_v0_uc7.0.30_ud7.8

4-starting=47**aa21.94.1.4.90.20.94.0.4.90_ab_ac_ba50_bb62.1_bc675.500.8.0.1_bd62_be180_ca60.0.36.79.15.34.86.0.10_cb0_da1.0.0.100_db_dd10.3.0.9.17.50_dh1.30.50.50.0_di8_qa_qb_dc2.5.1.1.1_eh_ea27.FFCD53.FFCD53.E2B833.1.0_ec11.70.FFCD53.FFCD53.976E08.37.70.0_ed3.53.0.1.FFCD53.A27B43_ef_eg_r004.FFCD53.E5B941.976E08.2.0.19.30.332.493.644.1_r0131.FFCD53.FFCD53.976E08.0.0.39.50.350.549.463.1_r0252.FFCD53.FFCD53.976E08.0.0.70.54.40.456.480.1_r0358.FFCD53.FFCD53.976E08.0.0.50.50.0.620.424.0_r0461.FFCD53.FFCD53.976E08.0.0.50.50.0.549.439.0_fa4.76.87.73.32.65.56_fb7_fh1_fc2.C386FD.55.2.C386FD.55.37.61.61.37.48.50_fd1.0.36.FFCD53.56_fe50.73_ff0000000000_fg0.52_pa0.0.0.0.40.50.85.85.0.0_t00_pb_pc_pd_pe_ga0_gb1_gc32.0_ge0000000000_gh_gf_gg_gd10000000_ha98.98_hb50.1.0.99_hc1.84.39.1.84.39_hd33.1.47.42_ia_if_ib_id_ic_jc_ie_ja_jb_jd_je_jf_jg_ka_kb_kc_kd_ke_kf_la_lb_oa_os_ob_oc_od_oe_of_lc_m00_n00_s00_og_oh_oo_op_oq_or_om_on_ok_ol_oi_oj_ad0.0.0.0.0.0.0.0.0.0

5-horny=47**aa18.77.1.28.80.25.94.0.4.99_ab_ac_ba50_bb64.1_bc675.500.8.0.1_bd64_be172_ca60.0.36.79.15.34.86.0.10_cb0_da1.0.0.100_db_dd9.3.0.9.17.50_dh1.30.50.50.0_di8_qa_qb_dc2.5.1.1.1_eh_ea27.FFCD53.FFCD53.E2B833.1.0_ec11.70.FFCD53.FFCD53.976E08.37.70.0_ed3.53.0.1.FFCD53.A27B43_ef_eg_r004.FFCD53.E5B941.976E08.2.0.19.30.332.493.644.1_r0131.FFCD53.FFCD53.976E08.0.0.39.50.350.549.463.1_r0252.FFCD53.FFCD53.976E08.0.0.70.54.40.456.480.1_r0358.FFCD53.FFCD53.976E08.0.0.50.50.0.620.424.0_r0461.FFCD53.FFCD53.976E08.0.0.50.50.0.549.439.0_fa4.76.87.73.32.65.56_fb7_fh1_fc2.C386FD.55.2.C386FD.55.37.61.61.37.48.50_fd1.0.36.FFCD53.56_fe50.73_ff0000000000_fg0.52_pa0.0.0.0.40.50.85.85.0.0_t00_pb_pc_pd_pe_ga0_gb1_gc42.0_ge0000000000_gh_gf_gg_gd10000000_ha98.98_hb50.1.0.99_hc1.94.25.1.94.25_hd38.1.47.42_ia_if_ib_id_ic_jc_ie_ja_jb_jd_je_jf_jg_ka_kb_kc_kd_ke_kf_la_lb_oa_os_ob_oc_od_oe_of_lc_m00_n00_s00_og_oh_oo_op_oq_or_om_on_ok_ol_oi_oj_ad0.0.0.0.0.0.0.0.0.0

5-horny2=47**aa18.78.1.28.80.12.69.1.4.24_ab_ac_ba53_bb64.1_bc675.500.8.0.1_bd66_be180_ca60.0.36.79.15.34.86.0.10_cb0_da1.0.0.100_db_dd10.3.0.9.17.50_dh1.30.50.50.0_di8_qa_qb_dc2.5.1.1.1_eh_ea27.FFCD53.FFCD53.E2B833.1.0_ec11.70.FFCD53.FFCD53.976E08.37.70.0_ed3.53.0.1.FFCD53.A27B43_ef_eg_r004.FFCD53.E5B941.976E08.2.0.19.30.332.493.644.1_r0131.FFCD53.FFCD53.976E08.0.0.39.50.350.549.463.1_r0252.FFCD53.FFCD53.976E08.0.0.70.54.40.456.480.1_r0358.FFCD53.FFCD53.976E08.0.0.50.50.0.620.424.0_r0461.FFCD53.FFCD53.976E08.0.0.50.50.0.549.439.0_fa4.76.87.73.32.65.56_fb7_fh1_fc2.C386FD.55.2.C386FD.55.37.61.61.37.48.50_fd1.0.36.FFCD53.56_fe50.73_ff0000000000_fg0.52_pa0.0.0.0.40.50.85.85.0.0_t00_pb_pc_pd_pe_ga0_gb1_gc42.0_ge0000000000_gh_gf_gg_gd10000000_ha98.98_hb50.1.50.99_hc0.44.14.0.44.14_hd27.1.47.42_ia_if_ib_id_ic_jc_ie_ja_jb_jd_je_jf_jg_ka_kb_kc_kd_ke_kf_la_lb_oa_os_ob_oc_od_oe_of_lc_m00_n00_s00_og_oh_oo_op_oq_or_om_on_ok_ol_oi_oj_ad0.0.0.0.0.0.0.0.0.0

5-horny3=47**aa22.79.1.21.58.24.78.1.28.40_ab_ac_ba53_bb60.1_bc675.500.8.0.1_bd62_be180_ca60.0.36.79.15.34.86.0.10_cb0_da1.0.0.100_db_dd10.3.0.9.17.50_dh1.30.50.50.0_di8_qa_qb_dc2.5.1.1.1_eh_ea27.FFCD53.FFCD53.E2B833.1.0_ec11.70.FFCD53.FFCD53.976E08.37.70.0_ed3.53.0.1.FFCD53.A27B43_ef_eg_r004.FFCD53.E5B941.976E08.2.0.19.30.332.493.644.1_r0131.FFCD53.FFCD53.976E08.0.0.39.50.350.549.463.1_r0252.FFCD53.FFCD53.976E08.0.0.70.54.40.456.480.1_r0358.FFCD53.FFCD53.976E08.0.0.50.50.0.620.424.0_r0461.FFCD53.FFCD53.976E08.0.0.50.50.0.549.439.0_fa4.76.87.73.32.65.56_fb7_fh1_fc2.C386FD.55.2.C386FD.55.37.61.61.37.48.50_fd1.0.36.FFCD53.56_fe50.73_ff0000000000_fg0.52_pa0.0.0.0.40.50.85.85.0.0_t00_pb_pc_pd_pe_ga0_gb1_gc42.0_ge0000000000_gh_gf_gg_gd10000000_ha98.98_hb50.1.50.99_hc0.70.33.0.70.33_hd20.1.47.42_ia_if_ib_id_ic_jc_ie_ja_jb_jd_je_jf_jg_ka_kb_kc_kd_ke_kf_la_lb_oa_os_ob_oc_od_oe_of_lc_m00_n00_s00_og_oh_oo_op_oq_or_om_on_ok_ol_oi_oj_ad0.0.0.0.0.0.0.0.0.0

5-panic=47**aa16.66.1.49.53.21.80.1.28.43_ab_ac_ba50_bb76.0_bc675.500.8.0.1_bd68_be180_ca60.0.36.79.15.34.86.0.10_cb0_da1.0.0.100_db_dd9.3.0.9.17.50_dh1.30.50.50.0_di8_qa_qb_dc2.5.1.1.1_eh_ea27.FFCD53.FFCD53.E2B833.1.0_ec11.70.FFCD53.FFCD53.976E08.37.70.0_ed3.53.0.1.FFCD53.A27B43_ef_eg_r004.FFCD53.E5B941.976E08.2.0.19.30.332.493.644.1_r0131.FFCD53.FFCD53.976E08.0.0.39.50.350.549.463.1_r0252.FFCD53.FFCD53.976E08.0.0.70.54.40.456.480.1_r0358.FFCD53.FFCD53.976E08.0.0.50.50.0.620.424.0_r0461.FFCD53.FFCD53.976E08.0.0.50.50.0.549.439.0_fa4.76.87.73.32.65.56_fb7_fh1_fc2.C386FD.55.2.C386FD.55.21.61.61.21.48.50_fd1.0.36.FFCD53.56_fe50.73_ff0000000000_fg0.52_pa0.0.0.0.40.50.85.85.0.0_t00_pb_pc_pd_pe_ga0_gb1_gc49.24_ge0000000000_gh_gf_gg_gd10000000_ha92.92_hb55.1.0.99_hc3.83.41.3.83.41_hd43.1.48.47_ia_if_ib_id_ic_jc_ie_ja_jb_jd_je_jf_jg_ka_kb_kc_kd_ke_kf_la_lb_oa_os_ob_oc_od_oe_of_lc_m00_n00_s00_og_oh_oo_op_oq_or_om_on_ok_ol_oi_oj_ad0.0.0.0.0.0.0.0.0.0

5-interested=47**aa17.66.1.4.40.18.80.1.49.65_ab_ac_ba36_bb66.1_bc675.500.8.0.1_bd61_be180_ca60.0.36.79.15.34.86.0.10_cb0_da1.0.0.100_db_dd9.3.0.9.17.50_dh1.30.50.50.0_di8_qa_qb_dc2.5.1.1.1_eh_ea27.FFCD53.FFCD53.E2B833.1.0_ec11.70.FFCD53.FFCD53.976E08.37.70.0_ed3.53.0.1.FFCD53.A27B43_ef_eg_r004.FFCD53.E5B941.976E08.2.0.19.30.332.493.644.1_r0131.FFCD53.FFCD53.976E08.0.0.39.50.350.549.463.1_r0252.FFCD53.FFCD53.976E08.0.0.70.54.40.456.480.1_r0358.FFCD53.FFCD53.976E08.0.0.50.50.0.620.424.0_r0461.FFCD53.FFCD53.976E08.0.0.50.50.0.549.439.0_fa4.76.87.73.32.65.56_fb7_fh1_fc2.C386FD.55.2.C386FD.55.37.61.61.37.48.50_fd1.0.36.FFCD53.56_fe50.73_ff0000000000_fg0.52_pa0.0.0.0.40.50.85.85.0.0_t00_pb_pc_pd_pe_ga0_gb1_gc20.0_ge0000000000_gh_gf_gg_gd10000000_ha71.71_hb49.1.44.99_hc0.27.32.1.51.0_hd1.1.50.40_ia_if_ib_id_ic_jc_ie_ja_jb_jd_je_jf_jg_ka_kb_kc_kd_ke_kf_la_lb_oa_os_ob_oc_od_oe_of_lc_m00_n00_s00_og_oh_oo_op_oq_or_om_on_ok_ol_oi_oj_ad0.0.0.0.0.0.0.0.0.0

5-angry=47**aa19.61.1.28.81.19.80.1.28.47_ab_ac_ba50_bb72.1_bc675.500.8.0.1_bd75_be180_ca60.0.36.79.15.34.86.0.10_cb0_da1.0.0.100_db_dd9.3.0.9.17.50_dh1.30.50.50.0_di8_qa_qb_dc2.5.1.1.1_eh_ea27.FFCD53.FFCD53.E2B833.1.0_ec11.70.FFCD53.FFCD53.976E08.37.70.0_ed3.53.0.1.FFCD53.A27B43_ef_eg_r004.FFCD53.E5B941.976E08.2.0.19.30.332.493.644.1_r0131.FFCD53.FFCD53.976E08.0.0.39.50.350.549.463.1_r0252.FFCD53.FFCD53.976E08.0.0.70.54.40.456.480.1_r0358.FFCD53.FFCD53.976E08.0.0.50.50.0.620.424.0_r0461.FFCD53.FFCD53.976E08.0.0.50.50.0.549.439.0_fa4.76.87.73.32.65.56_fb7_fh1_fc2.FA0505.55.2.FA0505.55.37.61.61.37.48.50_fd1.0.36.FFCD53.56_fe50.73_ff0000000000_fg0.52_pa0.0.0.0.40.50.85.85.0.0_t00_pb_pc_pd_pe_ga0_gb1_gc20.0_ge0000000000_gh_gf_gg_gd10000000_ha88.88_hb49.1.44.99_hc2.10.0.2.10.0_hd51.1.41.78_ia_if_ib_id_ic_jc_ie_ja_jb_jd_je_jf_jg_ka_kb_kc_kd_ke_kf_la_lb_oa_os_ob_oc_od_oe_of_lc_m00_n00_s00_og_oh_oo_op_oq_or_om_on_ok_ol_oi_oj_ad0.0.0.0.0.0.0.0.0.0

5-angry2=47**aa18.49.1.47.43.21.49.1.47.43_ab_ac_ba50_bb75.0_bc675.500.8.0.1_bd72_be180_ca60.0.36.79.15.34.86.0.10_cb0_da1.0.0.100_db_dd9.3.0.9.17.50_dh1.30.50.50.0_di8_qa_qb_dc2.5.1.1.1_eh_ea27.FFCD53.FFCD53.E2B833.1.0_ec11.70.FFCD53.FFCD53.976E08.37.70.0_ed3.53.0.1.FFCD53.A27B43_ef_eg_r004.FFCD53.E5B941.976E08.2.0.19.30.332.493.644.1_r0131.FFCD53.FFCD53.976E08.0.0.39.50.350.549.463.1_r0252.FFCD53.FFCD53.976E08.0.0.70.54.40.456.480.1_r0358.FFCD53.FFCD53.976E08.0.0.50.50.0.620.424.0_r0461.FFCD53.FFCD53.976E08.0.0.50.50.0.549.439.0_fa4.76.87.73.32.65.56_fb7_fh1_fc2.FA0505.55.2.FA0505.55.37.61.61.37.48.50_fd1.0.36.FFCD53.56_fe50.73_ff0000000000_fg0.52_pa0.0.0.0.40.50.85.85.0.0_t00_pb_pc_pd_pe_ga0_gb1_gc38.0_ge0000000000_gh_gf_gg_gd10000000_ha88.88_hb49.1.44.99_hc2.10.0.2.10.0_hd51.1.41.78_ia_if_ib_id_ic_jc_ie_ja_jb_jd_je_jf_jg_ka_kb_kc_kd_ke_kf_la_lb_oa_os_ob_oc_od_oe_of_lc_m00_n00_s00_og_oh_oo_op_oq_or_om_on_ok_ol_oi_oj_ad0.0.0.0.0.0.0.0.0.0

5-awkward=47**aa20.81.1.28.50.20.81.1.28.50_ab_ac_ba50_bb63.1_bc675.500.8.0.1_bd63_be180_ca60.0.36.79.15.34.86.0.10_cb0_da1.0.0.100_db_dd9.3.0.9.17.50_dh1.30.50.50.0_di8_qa_qb_dc2.5.1.1.1_eh_ea27.FFCD53.FFCD53.E2B833.1.0_ec11.70.FFCD53.FFCD53.976E08.37.70.0_ed3.53.0.1.FFCD53.A27B43_ef_eg_r004.FFCD53.E5B941.976E08.2.0.19.30.332.493.644.1_r0131.FFCD53.FFCD53.976E08.0.0.39.50.350.549.463.1_r0252.FFCD53.FFCD53.976E08.0.0.70.54.40.456.480.1_r0358.FFCD53.FFCD53.976E08.0.0.50.50.0.620.424.0_r0461.FFCD53.FFCD53.976E08.0.0.50.50.0.549.439.0_fa4.76.87.73.32.65.56_fb7_fh1_fc2.C386FD.55.2.C386FD.55.37.61.61.37.48.50_fd1.0.36.FFCD53.56_fe50.73_ff0000000000_fg0.52_pa0.0.0.0.40.50.85.85.0.0_t00_pb_pc_pd_pe_ga0_gb1_gc22.0_ge0000000000_gh_gf_gg_gd10000000_ha84.84_hb50.1.22.99_hc0.78.14.0.78.14_hd1.1.61.7_ia_if_ib_id_ic_jc_ie_ja_jb_jd_je_jf_jg_ka_kb_kc_kd_ke_kf_la_lb_oa_os_ob_oc_od_oe_of_lc_m00_n00_s00_og_oh_oo_op_oq_or_om_on_ok_ol_oi_oj_ad0.0.0.0.0.0.0.0.0.0

5-embarrassed=47**aa19.61.1.28.81.16.81.1.28.71_ab_ac_ba50_bb98.1_bc675.500.8.0.1_bd98_be180_ca60.0.36.79.15.34.86.0.10_cb0_da1.0.0.100_db_dd10.3.0.9.17.50_dh1.30.50.50.0_di8_qa_qb_dc2.5.1.1.1_eh_ea27.FFCD53.FFCD53.E2B833.1.0_ec11.70.FFCD53.FFCD53.976E08.37.70.0_ed3.53.0.1.FFCD53.A27B43_ef_eg_r004.FFCD53.E5B941.976E08.2.0.19.30.332.493.644.1_r0131.FFCD53.FFCD53.976E08.0.0.39.50.350.549.463.1_r0252.FFCD53.FFCD53.976E08.0.0.70.54.40.456.480.1_r0358.FFCD53.FFCD53.976E08.0.0.50.50.0.620.424.0_r0461.FFCD53.FFCD53.976E08.0.0.50.50.0.549.439.0_fa4.76.87.73.32.65.56_fb7_fh1_fc2.C386FD.55.2.C386FD.55.37.61.61.37.48.50_fd1.0.36.FFCD53.56_fe50.73_ff0000000000_fg0.52_pa0.0.0.0.40.50.85.85.0.0_t00_pb_pc_pd_pe_ga0_gb1_gc30.0_ge0000000000_gh_gf_gg_gd10000000_ha92.92_hb49.1.44.99_hc1.85.25.1.85.25_hd33.1.32.9_ia_if_ib_id_ic_jc_ie_ja_jb_jd_je_jf_jg_ka_kb_kc_kd_ke_kf_la_lb_oa_os_ob_oc_od_oe_of_lc_m00_n00_s00_og_oh_oo_op_oq_or_om_on_ok_ol_oi_oj_ad0.0.0.0.0.0.0.0.0.0

5-embarrassed2=47**aa21.81.1.28.40.18.77.1.28.85_ab_ac_ba50_bb98.0_bc675.500.8.0.1_bd98_be178_ca60.0.36.79.15.34.86.0.10_cb0_da1.0.0.100_db_dd10.3.0.9.17.50_dh1.30.50.50.0_di8_qa_qb_dc2.4.1.1.1_eh_ea27.FFCD53.FFCD53.E2B833.1.0_ec11.70.FFCD53.FFCD53.976E08.37.70.0_ed3.53.0.1.FFCD53.A27B43_ef_eg_r004.FFCD53.E5B941.976E08.2.0.19.30.332.493.644.1_r0131.FFCD53.FFCD53.976E08.0.0.39.50.350.549.463.1_r0252.FFCD53.FFCD53.976E08.0.0.70.54.40.456.480.1_r0358.FFCD53.FFCD53.976E08.0.0.50.50.0.620.424.0_r0461.FFCD53.FFCD53.976E08.0.0.50.50.0.549.439.0_fa4.76.87.73.32.65.56_fb7_fh1_fc2.C386FD.55.2.C386FD.55.37.61.61.37.48.50_fd1.0.36.FFCD53.56_fe50.73_ff0000000000_fg0.52_pa0.0.0.0.40.50.85.85.0.0_t00_pb_pc_pd_pe_ga0_gb1_gc25.0_ge0000000000_gh_gf_gg_gd10000000_ha92.92_hb79.1.21.99_hc1.90.19.1.90.19_hd9.1.32.9_ia_if_ib_id_ic_jc_ie_ja_jb_jd_je_jf_jg_ka_kb_kc_kd_ke_kf_la_lb_oa_os_ob_oc_od_oe_of_lc_m00_n00_s00_og_oh_oo_op_oq_or_om_on_ok_ol_oi_oj_ad0.0.0.0.0.0.0.0.0.0

5-sad=47**aa13.66.1.16.46.13.66.1.16.46_ab_ac_ba50_bb74.1_bc675.500.8.0.1_bd74_be179_ca60.0.36.79.15.34.86.0.10_cb0_da1.0.0.100_db_dd9.3.0.9.17.50_dh1.30.50.50.0_di8_qa_qb_dc2.5.1.1.1_eh_ea27.FFCD53.FFCD53.E2B833.1.0_ec11.70.FFCD53.FFCD53.976E08.37.70.0_ed3.53.0.1.FFCD53.A27B43_ef_eg_r004.FFCD53.E5B941.976E08.2.0.19.30.332.493.644.1_r0131.FFCD53.FFCD53.976E08.0.0.39.50.350.549.463.1_r0252.FFCD53.FFCD53.976E08.0.0.70.54.40.456.480.1_r0358.FFCD53.FFCD53.976E08.0.0.50.50.0.620.424.0_r0461.FFCD53.FFCD53.976E08.0.0.50.50.0.549.439.0_fa4.76.87.73.32.65.56_fb7_fh1_fc2.C386FD.55.2.C386FD.55.37.61.61.37.48.50_fd1.0.36.FFCD53.56_fe50.73_ff0000000000_fg0.52_pa0.0.0.0.40.50.85.85.0.0_t00_pb_pc_pd_pe_ga0_gb1_gc20.0_ge0000000000_gh_gf_gg_gd10000000_ha92.92_hb71.1.24.99_hc1.90.21.1.90.21_hd5.1.69.38_ia_if_ib_id_ic_jc_ie_ja_jb_jd_je_jf_jg_ka_kb_kc_kd_ke_kf_la_lb_oa_os_ob_oc_od_oe_of_lc_m00_n00_s00_og_oh_oo_op_oq_or_om_on_ok_ol_oi_oj_ad0.0.0.0.0.0.0.0.0.0

5-shocked=47**aa19.79.1.28.79.7.68.1.16.64_ab_ac_ba50_bb61.1_bc675.500.8.0.1_bd61_be180_ca60.0.36.79.15.34.86.0.10_cb0_da1.0.0.100_db_dd9.3.0.9.17.50_dh1.30.50.50.0_di8_qa_qb_dc2.5.1.1.1_eh_ea27.FFCD53.FFCD53.E2B833.1.0_ec11.70.FFCD53.FFCD53.976E08.37.70.0_ed3.53.0.1.FFCD53.A27B43_ef_eg_r004.FFCD53.E5B941.976E08.2.0.19.30.332.493.644.1_r0131.FFCD53.FFCD53.976E08.0.0.39.50.350.549.463.1_r0252.FFCD53.FFCD53.976E08.0.0.70.54.40.456.480.1_r0358.FFCD53.FFCD53.976E08.0.0.50.50.0.620.424.0_r0461.FFCD53.FFCD53.976E08.0.0.50.50.0.549.439.0_fa4.76.87.73.32.65.56_fb7_fh1_fc2.C386FD.55.2.C386FD.55.23.61.61.23.48.50_fd1.0.36.FFCD53.56_fe50.73_ff0000000000_fg0.52_pa0.0.0.0.40.50.85.85.0.0_t00_pb_pc_pd_pe_ga0_gb1_gc35.0_ge0000000000_gh_gf_gg_gd10000000_ha92.92_hb50.1.50.99_hc1.86.21.1.86.21_hd38.1.69.15_ia_if_ib_id_ic_jc_ie_ja_jb_jd_je_jf_jg_ka_kb_kc_kd_ke_kf_la_lb_oa_os_ob_oc_od_oe_of_lc_m00_n00_s00_og_oh_oo_op_oq_or_om_on_ok_ol_oi_oj_ad0.0.0.0.0.0.0.0.0.0

5-shocked3=47**aa19.79.1.28.79.7.68.1.16.64_ab_ac_ba50_bb61.1_bc675.500.8.0.1_bd61_be180_ca60.0.36.79.15.34.86.0.10_cb0_da1.0.0.100_db_dd9.3.0.9.17.50_dh1.30.50.50.0_di8_qa_qb_dc2.5.1.1.1_eh_ea27.FFCD53.FFCD53.E2B833.1.0_ec11.70.FFCD53.FFCD53.976E08.37.70.0_ed3.53.0.1.FFCD53.A27B43_ef_eg_r004.FFCD53.E5B941.976E08.2.0.19.30.332.493.644.1_r0131.FFCD53.FFCD53.976E08.0.0.39.50.350.549.463.1_r0252.FFCD53.FFCD53.976E08.0.0.70.54.40.456.480.1_r0358.FFCD53.FFCD53.976E08.0.0.50.50.0.620.424.0_r0461.FFCD53.FFCD53.976E08.0.0.50.50.0.549.439.0_fa4.76.87.73.32.65.56_fb7_fh1_fc2.C386FD.55.2.C386FD.55.23.61.61.23.48.50_fd1.0.36.FFCD53.56_fe50.73_ff0000000000_fg0.52_pa0.0.0.0.40.50.85.85.0.0_t00_pb_pc_pd_pe_ga0_gb1_gc35.0_ge0000000000_gh_gf_gg_gd10000000_ha92.92_hb50.1.50.99_hc0.66.28.0.66.28_hd38.1.69.45_ia_if_ib_id_ic_jc_ie_ja_jb_jd_je_jf_jg_ka_kb_kc_kd_ke_kf_la_lb_oa_os_ob_oc_od_oe_of_lc_m00_n00_s00_og_oh_oo_op_oq_or_om_on_ok_ol_oi_oj_ad0.0.0.0.0.0.0.0.0.0

5-excited=47**aa13.100.1.4.93.17.80.1.49.79_ab_ac_ba44_bb63.1_bc675.500.8.0.1_bd66_be176_ca60.0.36.79.15.34.86.0.10_cb0_da1.0.0.100_db_dd9.3.0.9.17.50_dh1.30.50.50.0_di8_qa_qb_dc2.5.1.1.1_eh_ea27.FFCD53.FFCD53.E2B833.1.0_ec11.70.FFCD53.FFCD53.976E08.37.70.0_ed3.53.0.1.FFCD53.A27B43_ef_eg_r004.FFCD53.E5B941.976E08.2.0.19.30.332.493.644.1_r0131.FFCD53.FFCD53.976E08.0.0.39.50.350.549.463.1_r0252.FFCD53.FFCD53.976E08.0.0.70.54.40.456.480.1_r0358.FFCD53.FFCD53.976E08.0.0.50.50.0.620.424.0_r0461.FFCD53.FFCD53.976E08.0.0.50.50.0.549.439.0_fa4.76.87.73.32.65.56_fb7_fh1_fc2.C386FD.55.2.C386FD.55.37.61.61.37.48.50_fd1.0.36.FFCD53.56_fe50.73_ff0000000000_fg0.52_pa0.0.0.0.40.50.85.85.0.0_t00_pb_pc_pd_pe_ga0_gb1_gc20.0_ge0000000000_gh_gf_gg_gd10000000_ha92.92_hb49.1.44.99_hc0.64.23.0.64.23_hd35.1.69.100_ia_if_ib_id_ic_jc_ie_ja_jb_jd_je_jf_jg_ka_kb_kc_kd_ke_kf_la_lb_oa_os_ob_oc_od_oe_of_lc_m00_n00_s00_og_oh_oo_op_oq_or_om_on_ok_ol_oi_oj_ad0.0.0.0.0.0.0.0.0.0

5-heavy=47**aa20.77.1.28.66.72.41.1.28.46_ab_ac_ba42_bb64.1_bc675.500.8.0.1_bd64_be180_ca60.0.36.79.15.34.86.0.10_cb0_da1.0.0.100_db_dd10.3.0.9.17.50_dh1.30.50.50.0_di8_qa_qb_dc2.5.1.1.1_eh_ea27.FFCD53.FFCD53.E2B833.1.0_ec11.70.FFCD53.FFCD53.976E08.37.70.0_ed3.53.0.1.FFCD53.A27B43_ef_eg_r004.FFCD53.E5B941.976E08.2.0.19.30.332.493.644.1_r0131.FFCD53.FFCD53.976E08.0.0.39.50.350.549.463.1_r0252.FFCD53.FFCD53.976E08.0.0.70.54.40.456.480.1_r0358.FFCD53.FFCD53.976E08.0.0.50.50.0.620.424.0_r0461.FFCD53.FFCD53.976E08.0.0.50.50.0.549.439.0_fa4.76.87.73.32.65.56_fb7_fh1_fc2.C386FD.55.2.C386FD.55.11.61.61.11.48.50_fd1.0.36.FFCD53.56_fe50.73_ff0000000000_fg0.52_pa0.0.0.0.40.50.85.85.0.0_t00_pb_pc_pd_pe_ga0_gb1_gc39.0_ge0000000000_gh_gf_gg_gd10000000_ha92.92_hb46.1.0.99_hc3.76.48.3.76.48_hd35.1.69.100_ia_if_ib_id_ic_jc_ie_ja_jb_jd_je_jf_jg_ka_kb_kc_kd_ke_kf_la_lb_oa_os_ob_oc_od_oe_of_lc_m00_n00_s00_og_oh_oo_op_oq_or_om_on_ok_ol_oi_oj_ad0.0.0.0.0.0.0.0.0.0

5-finishing=47**aa23.55.1.16.38.20.81.1.28.50_ab_ac_ba50_bb66.1_bc500.500.8.0.1_bd66_be180_ca60.0.36.79.15.34.86.0.10_cb0_da1.0.0.100_db_dd10.3.0.9.17.50_dh1.30.50.50.0_di8_qa_qb_dc142.5.1.1.1_eh_ea27.FFCD53.FFCD53.E2B833.1.0_ec11.70.FFCD53.FFCD53.824D00.37.70.0_ed3.53.0.1.FFCD53.A27B43_ef_eg_r004.FFCD53.E5B941.976E08.2.0.19.30.332.493.644.1_r0131.FFCD53.FFCD53.976E08.0.0.39.50.350.549.463.1_r0252.FFCD53.FFCD53.976E08.0.0.70.54.40.456.480.1_r0358.FFCD53.FFCD53.976E08.0.0.50.50.0.620.424.0_r0461.FFCD53.FFCD53.976E08.0.0.50.50.0.549.439.0_fa4.76.87.73.32.65.56_fb7_fh1_fc2.FA0505.55.2.FA0505.55.22.61.61.22.48.50_fd1.0.36.FFCD53.56_fe50.73_ff0000000000_fg0.52_pa0.0.0.0.40.50.85.85.0.0_t00_pb_pc_pd_pe_ga0_gb1_gc39.0_ge0000000000_gh_gf_gg_gd11110000_ha100.100_hb46.1.100.99_hc1.35.24.1.35.24_hd42.1.69.67_ia_if_ib_id_ic_jc_ie_ja_jb_jd_je_jf_jg_ka_kb_kc_kd_ke_kf_la_lb_oa_os_ob_oc_od_oe_of_lc_m00_n00_s00_og_oh_oo_op_oq_or_om_on_ok_ol_oi_oj_ad0.0.0.0.0.0.0.0.0.0

6-finished=47**aa13.100.1.4.93.17.80.1.49.79_ab_ac_ba44_bb98.1_bc675.500.8.0.1_bd98_be180_ca60.0.36.79.15.34.86.0.10_cb0_da1.0.0.100_db_dd10.3.0.9.17.50_dh1.30.50.50.0_di8_qa_qb_dc338.5.1.1.1_eh_ea27.FFCD53.FFCD53.E2B833.1.0_ec11.70.FFCD53.FFCD53.976E08.37.70.0_ed3.53.0.1.FFCD53.A27B43_ef_eg_r004.FFCD53.E5B941.976E08.2.0.19.30.332.493.644.1_r0131.FFCD53.FFCD53.976E08.0.0.39.50.350.549.463.1_r0252.FFCD53.FFCD53.976E08.0.0.70.54.40.456.480.1_r0358.FFCD53.FFCD53.976E08.0.0.50.50.0.620.424.0_r0461.FFCD53.FFCD53.976E08.0.0.50.50.0.549.439.0_fa4.76.87.73.32.65.56_fb7_fh1_fc2.C386FD.55.2.C386FD.55.37.61.61.37.48.50_fd1.0.36.FFCD53.56_fe50.73_ff0000000000_fg0.52_pa0.0.0.0.40.50.85.85.0.0_t00_pb_pc_pd_pe_ga0_gb1_gc29.0_ge0000000000_gh_gf_gg_gd10010000_ha92.92_hb49.1.44.99_hc0.64.23.0.64.23_hd35.1.69.100_ia_if_ib_id_ic_jc_ie_ja_jb_jd_je_jf_jg_ka_kb_kc_kd_ke_kf_la_lb_oa_os_ob_oc_od_oe_of_lc_m00_n00_s00_og_oh_oo_op_oq_or_om_on_ok_ol_oi_oj_ad1.1.1.1.1.1.1.1.1.1